Liner Regression Assignment
…
data4

## # A tibble: 486 x 8
##    PersonalBS WorkBS ClientBS   Age Gender   Bmi .fitted .se.fit
##         <dbl>  <dbl>    <dbl> <dbl> <fct>  <dbl>   <dbl>   <dbl>
##  1        0.5    0.5      0.5    24 Male      18   0.252   0.173
##  2        2      0.5      0.5    24 Male      18   1.13    0.182
##  3        3.5    0.5      0.5    24 Male      18   2.01    0.222
##  4        0.5    2.5      0.5    24 Male      18   0.768   0.145
##  5        2      2.5      0.5    24 Male      18   1.65    0.142
##  6        3.5    2.5      0.5    24 Male      18   2.52    0.179
##  7        0.5    3.5      0.5    24 Male      18   1.03    0.165
##  8        2      3.5      0.5    24 Male      18   1.90    0.156
##  9        3.5    3.5      0.5    24 Male      18   2.78    0.185
## 10        0.5    0.5      2      24 Male      18   0.429   0.165
## #  with 476 more rows

Influentials

influen.obs<-augment(prelim.final.model)%>%filter(.std.resid >2|.std.resid < -2 |.hat > 0.0533)
influen.obs

## # A tibble: 21 x 14
##    FamilySS PersonalBS WorkBS ClientBS   Age Gender   Bmi .fitted .se.fit
##       <dbl>      <dbl>  <dbl>    <dbl> <dbl> <chr>  <dbl>   <dbl>   <dbl>
##  1     1.99       2.26   3.59     2.22    43 Male    33.3   1.98   0.138 
##  2     3.15       2.28   3.58     2.21    31 Female  18.5   1.98   0.0996
##  3     2.06       3.62   3.95     2.36    43 Female  32.0   2.61   0.146 
##  4     2.67       3.47   2.94     2.85    29 Male    37.4   2.79   0.149 
##  5     3.21       2.21   2.25     3.26    26 Male    21.2   1.99   0.0828
##  6     3.22       3.8    4        3.69    29 Female  33.7   3.08   0.145 
##  7     0.89       1.14   1.08     1.34    29 Female  31.2   0.999  0.138 
##  8     2.73       2.15   4        2.97    39 Male    33.3   2.16   0.148 
##  9     0.86       1.63   3.72     3.66    29 Male    22.9   2.03   0.117 
## 10     3.1        1.95   1.99     3.46    34 Female  23.1   1.74   0.0865
## #  with 11 more rows, and 5 more variables: .resid <dbl>, .hat <dbl>,
## #   .sigma <dbl>, .cooksd <dbl>, .std.resid <dbl>

##non influentials

non.influen.obs<- augment(prelim.final.model)%>%filter (.std.resid < 2 & .std.resid > 0.0533)
non.influen.obs

## # A tibble: 139 x 14
##    FamilySS PersonalBS WorkBS ClientBS   Age Gender   Bmi .fitted .se.fit
##       <dbl>      <dbl>  <dbl>    <dbl> <dbl> <chr>  <dbl>   <dbl>   <dbl>
##  1     2.21       2.33   2.38     2.57    35 Male    22.7    1.88  0.0513
##  2     1.87       2.46   2.2      2.6     56 Female  21.6    1.64  0.114 
##  3     1.93       1.84   2.69     3.22    49 Male    23.4    1.55  0.0969
##  4     2.74       2.79   2.7      1.96    34 Male    23.3    2.18  0.0688
##  5     2.44       2.96   1.89     3.39    38 Male    22.5    2.18  0.0807
##  6     3.43       2.69   2.69     4       26 Male    18.1    2.48  0.104 
##  7     2.22       2.81   1.2      2.31    36 Female  29.7    2.00  0.112 
##  8     2.75       2.16   2.14     3.43    36 Female  19.3    1.86  0.0867
##  9     3.06       3.23   3.11     2.2     34 Female  23.5    2.44  0.0812
## 10     2.64       1.85   3.6      2.34    47 Male    22.3    1.72  0.107 
## #  with 129 more rows, and 5 more variables: .resid <dbl>, .hat <dbl>,
## #   .sigma <dbl>, .cooksd <dbl>, .std.resid <dbl>
…
